\relax 
\providecommand{\transparent@use}[1]{}
\transparent@use{.3}
\@writefile{toc}{\contentsline {section}{\numberline {1}C++ Stuff}{1}}
\@writefile{toc}{\contentsline {subsection}{\numberline {1.1}Lvalues, Rvalues, References}{1}}
\@writefile{toc}{\contentsline {subsubsection}{\numberline {1.1.1}lvalue}{1}}
\@writefile{toc}{\contentsline {subsubsection}{\numberline {1.1.2}rvalue}{1}}
\@writefile{toc}{\contentsline {section}{\numberline {2}Parameter Passing}{1}}
\@writefile{toc}{\contentsline {section}{\numberline {3}Vector}{2}}
