\contentsline {section}{\numberline {1}C++ Stuff}{1}
\contentsline {subsection}{\numberline {1.1}Lvalues, Rvalues, References}{1}
\contentsline {subsubsection}{\numberline {1.1.1}lvalue}{1}
\contentsline {subsubsection}{\numberline {1.1.2}rvalue}{1}
\contentsline {section}{\numberline {2}Parameter Passing}{1}
\contentsline {section}{\numberline {3}Vector}{2}
